{
    "current_page": 1,
    "data": {
        "0": {
            "id": 2506,
            "user_id": "1",
            "type": "1",
            "service": "order",
            "status": "1",
            "code": "ZDZDJJ7JP91N",
            "amount": "218.536",
            "charge": "0.000",
            "old_balance": "6656.19",
            "new_balance": "6874.72",
            "message": "Refunded order on #451974",
            "response": "",
            "created_at": "2023-12-24T21:41:09.000000Z",
            "updated_at": "2023-12-24T21:41:09.000000Z",
            "deleted_at": null
        },
        "1": {
            "id": 2494,
            "user_id": "1",
            "type": "1",
            "service": "referral",
            "status": "1",
            "code": "31QR2PS93FHF",
            "amount": "0.839",
            "charge": "0.000",
            "old_balance": "10661.76",
            "new_balance": "10662.60",
            "message": "Referral Bonus from instaking",
            "response": null,
            "created_at": "2023-12-24T15:24:27.000000Z",
            "updated_at": "2023-12-24T15:24:27.000000Z",
            "deleted_at": null
        },
        "2": {
            "id": 2492,
            "user_id": "1",
            "type": "1",
            "service": "referral",
            "status": "1",
            "code": "ON8XGB4361RJ",
            "amount": "5.770",
            "charge": "0.000",
            "old_balance": "10655.99",
            "new_balance": "10661.76",
            "message": "Referral Bonus from instaking",
            "response": null,
            "created_at": "2023-12-24T15:23:56.000000Z",
            "updated_at": "2023-12-24T15:23:56.000000Z",
            "deleted_at": null
        },
        "3": {
            "id": 2490,
            "user_id": "1",
            "type": "2",
            "service": "order",
            "status": "1",
            "code": "JNX7CWPVV2W6",
            "amount": "58.990",
            "charge": "0.000",
            "old_balance": "6715.18",
            "new_balance": "6656.19",
            "message": "You place an order of ₦58.99 for TikTok - Comment ~ Custom ~ 𝐍𝐎 𝗥𝗘𝗙𝗜𝗟𝗟 ~ 3k/days ~ INSTANT",
            "response": "",
            "created_at": "2023-12-24T14:19:35.000000Z",
            "updated_at": "2023-12-24T14:19:35.000000Z",
            "deleted_at": null
        },
        "4": {
            "id": 2471,
            "user_id": "1",
            "type": "1",
            "service": "order",
            "status": "1",
            "code": "CUV44OZPPRX1",
            "amount": "13.655",
            "charge": "0.000",
            "old_balance": "6701.52",
            "new_balance": "6715.18",
            "message": "Refunded order on #451769",
            "response": "",
            "created_at": "2023-12-24T08:27:48.000000Z",
            "updated_at": "2023-12-24T08:27:48.000000Z",
            "deleted_at": null
        },
        "5": {
            "id": 2438,
            "user_id": "1",
            "type": "1",
            "service": "referral",
            "status": "1",
            "code": "7N7BR9PRGRYT",
            "amount": "1.323",
            "charge": "0.000",
            "old_balance": "10654.67",
            "new_balance": "10655.99",
            "message": "Referral Bonus from instaking",
            "response": null,
            "created_at": "2023-12-23T14:56:16.000000Z",
            "updated_at": "2023-12-23T14:56:16.000000Z",
            "deleted_at": null
        },
        "6": {
            "id": 2423,
            "user_id": "1",
            "type": "1",
            "service": "order",
            "status": "1",
            "code": "3XJG2GO4C5AK",
            "amount": "262.176",
            "charge": "0.000",
            "old_balance": "6439.35",
            "new_balance": "6701.52",
            "message": "Refunded order on #452256",
            "response": "",
            "created_at": "2023-12-23T09:30:12.000000Z",
            "updated_at": "2023-12-23T09:30:12.000000Z",
            "deleted_at": null
        },
        "7": {
            "id": 2422,
            "user_id": "1",
            "type": "1",
            "service": "order",
            "status": "1",
            "code": "G25CP8V1GDHH",
            "amount": "262.176",
            "charge": "0.000",
            "old_balance": "6177.17",
            "new_balance": "6439.35",
            "message": "Refunded order on #452255",
            "response": "",
            "created_at": "2023-12-23T09:30:11.000000Z",
            "updated_at": "2023-12-23T09:30:11.000000Z",
            "deleted_at": null
        },
        "8": {
            "id": 2421,
            "user_id": "1",
            "type": "1",
            "service": "order",
            "status": "1",
            "code": "EJEHJO7SJX9C",
            "amount": "262.176",
            "charge": "0.000",
            "old_balance": "5914.99",
            "new_balance": "6177.17",
            "message": "Refunded order on #452253",
            "response": "",
            "created_at": "2023-12-23T09:30:10.000000Z",
            "updated_at": "2023-12-23T09:30:10.000000Z",
            "deleted_at": null
        },
        "9": {
            "id": 2420,
            "user_id": "1",
            "type": "1",
            "service": "order",
            "status": "1",
            "code": "JARE9BXVKZPV",
            "amount": "262.176",
            "charge": "0.000",
            "old_balance": "5652.82",
            "new_balance": "5914.99",
            "message": "Refunded order on #452252",
            "response": "",
            "created_at": "2023-12-23T09:30:10.000000Z",
            "updated_at": "2023-12-23T09:30:10.000000Z",
            "deleted_at": null
        },
        "10": {
            "id": 2419,
            "user_id": "1",
            "type": "1",
            "service": "order",
            "status": "1",
            "code": "GRKP58KUFW7Q",
            "amount": "262.176",
            "charge": "0.000",
            "old_balance": "5390.64",
            "new_balance": "5652.82",
            "message": "Refunded order on #452251",
            "response": "",
            "created_at": "2023-12-23T09:30:09.000000Z",
            "updated_at": "2023-12-23T09:30:09.000000Z",
            "deleted_at": null
        },
        "11": {
            "id": 2418,
            "user_id": "1",
            "type": "1",
            "service": "order",
            "status": "1",
            "code": "TW4NWF77JWJ3",
            "amount": "262.176",
            "charge": "0.000",
            "old_balance": "5128.47",
            "new_balance": "5390.64",
            "message": "Refunded order on #452250",
            "response": "",
            "created_at": "2023-12-23T09:30:09.000000Z",
            "updated_at": "2023-12-23T09:30:09.000000Z",
            "deleted_at": null
        },
        "12": {
            "id": 2417,
            "user_id": "1",
            "type": "1",
            "service": "order",
            "status": "1",
            "code": "O8DRXZZKDXAU",
            "amount": "262.176",
            "charge": "0.000",
            "old_balance": "4866.29",
            "new_balance": "5128.47",
            "message": "Refunded order on #452249",
            "response": "",
            "created_at": "2023-12-23T09:30:08.000000Z",
            "updated_at": "2023-12-23T09:30:08.000000Z",
            "deleted_at": null
        },
        "13": {
            "id": 2416,
            "user_id": "1",
            "type": "1",
            "service": "order",
            "status": "1",
            "code": "9CU7T9D367AF",
            "amount": "58.990",
            "charge": "0.000",
            "old_balance": "4807.30",
            "new_balance": "4866.29",
            "message": "Refunded order on #452248",
            "response": "",
            "created_at": "2023-12-23T09:30:08.000000Z",
            "updated_at": "2023-12-23T09:30:08.000000Z",
            "deleted_at": null
        },
        "14": {
            "id": 2415,
            "user_id": "1",
            "type": "1",
            "service": "order",
            "status": "1",
            "code": "W9ZOKXQMB6CO",
            "amount": "58.990",
            "charge": "0.000",
            "old_balance": "4748.31",
            "new_balance": "4807.30",
            "message": "Refunded order on #452247",
            "response": "",
            "created_at": "2023-12-23T09:30:03.000000Z",
            "updated_at": "2023-12-23T09:30:03.000000Z",
            "deleted_at": null
        },
        "15": {
            "id": 2414,
            "user_id": "1",
            "type": "1",
            "service": "order",
            "status": "1",
            "code": "8J92SJB9PXHP",
            "amount": "58.990",
            "charge": "0.000",
            "old_balance": "4689.32",
            "new_balance": "4748.31",
            "message": "Refunded order on #452246",
            "response": "",
            "created_at": "2023-12-23T09:29:59.000000Z",
            "updated_at": "2023-12-23T09:29:59.000000Z",
            "deleted_at": null
        },
        "16": {
            "id": 2413,
            "user_id": "1",
            "type": "1",
            "service": "order",
            "status": "1",
            "code": "VO6GVH3S22R8",
            "amount": "58.990",
            "charge": "0.000",
            "old_balance": "4630.33",
            "new_balance": "4689.32",
            "message": "Refunded order on #452245",
            "response": "",
            "created_at": "2023-12-23T09:29:59.000000Z",
            "updated_at": "2023-12-23T09:29:59.000000Z",
            "deleted_at": null
        },
        "17": {
            "id": 2412,
            "user_id": "1",
            "type": "1",
            "service": "order",
            "status": "1",
            "code": "PQEH6H981EMY",
            "amount": "58.990",
            "charge": "0.000",
            "old_balance": "4571.34",
            "new_balance": "4630.33",
            "message": "Refunded order on #452244",
            "response": "",
            "created_at": "2023-12-23T09:29:55.000000Z",
            "updated_at": "2023-12-23T09:29:55.000000Z",
            "deleted_at": null
        },
        "18": {
            "id": 2411,
            "user_id": "1",
            "type": "1",
            "service": "order",
            "status": "1",
            "code": "W7RNZDRJ21JP",
            "amount": "58.990",
            "charge": "0.000",
            "old_balance": "4512.35",
            "new_balance": "4571.34",
            "message": "Refunded order on #452242",
            "response": "",
            "created_at": "2023-12-23T09:29:54.000000Z",
            "updated_at": "2023-12-23T09:29:54.000000Z",
            "deleted_at": null
        },
        "19": {
            "id": 2410,
            "user_id": "1",
            "type": "1",
            "service": "order",
            "status": "1",
            "code": "J2KBWW923X6W",
            "amount": "58.990",
            "charge": "0.000",
            "old_balance": "4453.36",
            "new_balance": "4512.35",
            "message": "Refunded order on #452241",
            "response": "",
            "created_at": "2023-12-23T09:29:53.000000Z",
            "updated_at": "2023-12-23T09:29:53.000000Z",
            "deleted_at": null
        },
        "status": "success",
        "message": "Transactions fetched successfully"
    },
    "first_page_url": "https://www.instaking.ng/user-api/user/transactions?page=1",
    "from": 1,
    "last_page": 17,
    "last_page_url": "https://www.instaking.ng/user-api/user/transactions?page=17",
    "links": [
        {
            "url": null,
            "label": "&laquo; Previous",
            "active": false
        },
        {
            "url": "https://www.instaking.ng/user-api/user/transactions?page=1",
            "label": "1",
            "active": true
        },
        {
            "url": "https://www.instaking.ng/user-api/user/transactions?page=2",
            "label": "2",
            "active": false
        },
        {
            "url": "https://www.instaking.ng/user-api/user/transactions?page=3",
            "label": "3",
            "active": false
        },
        {
            "url": "https://www.instaking.ng/user-api/user/transactions?page=4",
            "label": "4",
            "active": false
        },
        {
            "url": "https://www.instaking.ng/user-api/user/transactions?page=5",
            "label": "5",
            "active": false
        },
        {
            "url": "https://www.instaking.ng/user-api/user/transactions?page=6",
            "label": "6",
            "active": false
        },
        {
            "url": "https://www.instaking.ng/user-api/user/transactions?page=7",
            "label": "7",
            "active": false
        },
        {
            "url": "https://www.instaking.ng/user-api/user/transactions?page=8",
            "label": "8",
            "active": false
        },
        {
            "url": "https://www.instaking.ng/user-api/user/transactions?page=9",
            "label": "9",
            "active": false
        },
        {
            "url": "https://www.instaking.ng/user-api/user/transactions?page=10",
            "label": "10",
            "active": false
        },
        {
            "url": null,
            "label": "...",
            "active": false
        },
        {
            "url": "https://www.instaking.ng/user-api/user/transactions?page=16",
            "label": "16",
            "active": false
        },
        {
            "url": "https://www.instaking.ng/user-api/user/transactions?page=17",
            "label": "17",
            "active": false
        },
        {
            "url": "https://www.instaking.ng/user-api/user/transactions?page=2",
            "label": "Next &raquo;",
            "active": false
        }
    ],
    "next_page_url": "https://www.instaking.ng/user-api/user/transactions?page=2",
    "path": "https://www.instaking.ng/user-api/user/transactions",
    "per_page": 20,
    "prev_page_url": null,
    "to": 22,
    "total": 332
}