{
    "status": "success",
    "message": "Transactions fetched successfully",
    "data": [
        {
            "id": 2606,
            "user_id": "1",
            "type": "1",
            "service": "referral",
            "status": "1",
            "code": "XS1QKD6GVBOS",
            "amount": "0.095",
            "charge": "0.000",
            "old_balance": "11249.12",
            "new_balance": "11249.21",
            "message": "Referral Bonus from instaking",
            "response": null,
            "created_at": "2023-12-27T20:32:34.000000Z",
            "updated_at": "2023-12-27T20:32:34.000000Z",
            "deleted_at": null
        },
        {
            "id": 2542,
            "user_id": "1",
            "type": "1",
            "service": "referral",
            "status": "1",
            "code": "63X323NUK5AJ",
            "amount": "135.000",
            "charge": "0.000",
            "old_balance": "11114.12",
            "new_balance": "11249.12",
            "message": "Referral Bonus from instaking",
            "response": null,
            "created_at": "2023-12-26T04:05:47.000000Z",
            "updated_at": "2023-12-26T04:05:47.000000Z",
            "deleted_at": null
        },
        {
            "id": 2540,
            "user_id": "1",
            "type": "1",
            "service": "referral",
            "status": "1",
            "code": "6M4OZQ3HX2QO",
            "amount": "63.967",
            "charge": "0.000",
            "old_balance": "11050.15",
            "new_balance": "11114.12",
            "message": "Referral Bonus from instaking",
            "response": null,
            "created_at": "2023-12-26T04:05:11.000000Z",
            "updated_at": "2023-12-26T04:05:11.000000Z",
            "deleted_at": null
        },
        {
            "id": 2529,
            "user_id": "1",
            "type": "1",
            "service": "referral",
            "status": "1",
            "code": "WFHQ5WY82TRF",
            "amount": "58.320",
            "charge": "0.000",
            "old_balance": "10991.83",
            "new_balance": "11050.15",
            "message": "Referral Bonus from instaking",
            "response": null,
            "created_at": "2023-12-25T14:28:15.000000Z",
            "updated_at": "2023-12-25T14:28:15.000000Z",
            "deleted_at": null
        },
        {
            "id": 2527,
            "user_id": "1",
            "type": "1",
            "service": "referral",
            "status": "1",
            "code": "D254S8NKQMAF",
            "amount": "121.500",
            "charge": "0.000",
            "old_balance": "10870.33",
            "new_balance": "10991.83",
            "message": "Referral Bonus from instaking",
            "response": null,
            "created_at": "2023-12-25T14:19:40.000000Z",
            "updated_at": "2023-12-25T14:19:40.000000Z",
            "deleted_at": null
        },
        {
            "id": 2525,
            "user_id": "1",
            "type": "1",
            "service": "referral",
            "status": "1",
            "code": "HZ41APMW5598",
            "amount": "207.729",
            "charge": "0.000",
            "old_balance": "10662.60",
            "new_balance": "10870.33",
            "message": "Referral Bonus from instaking",
            "response": null,
            "created_at": "2023-12-25T14:17:27.000000Z",
            "updated_at": "2023-12-25T14:17:27.000000Z",
            "deleted_at": null
        },
        {
            "id": 2506,
            "user_id": "1",
            "type": "1",
            "service": "order",
            "status": "1",
            "code": "ZDZDJJ7JP91N",
            "amount": "218.536",
            "charge": "0.000",
            "old_balance": "6656.19",
            "new_balance": "6874.72",
            "message": "Refunded order on #451974",
            "response": "",
            "created_at": "2023-12-24T21:41:09.000000Z",
            "updated_at": "2023-12-24T21:41:09.000000Z",
            "deleted_at": null
        },
        {
            "id": 2494,
            "user_id": "1",
            "type": "1",
            "service": "referral",
            "status": "1",
            "code": "31QR2PS93FHF",
            "amount": "0.839",
            "charge": "0.000",
            "old_balance": "10661.76",
            "new_balance": "10662.60",
            "message": "Referral Bonus from instaking",
            "response": null,
            "created_at": "2023-12-24T15:24:27.000000Z",
            "updated_at": "2023-12-24T15:24:27.000000Z",
            "deleted_at": null
        },
        {
            "id": 2492,
            "user_id": "1",
            "type": "1",
            "service": "referral",
            "status": "1",
            "code": "ON8XGB4361RJ",
            "amount": "5.770",
            "charge": "0.000",
            "old_balance": "10655.99",
            "new_balance": "10661.76",
            "message": "Referral Bonus from instaking",
            "response": null,
            "created_at": "2023-12-24T15:23:56.000000Z",
            "updated_at": "2023-12-24T15:23:56.000000Z",
            "deleted_at": null
        },
        {
            "id": 2490,
            "user_id": "1",
            "type": "2",
            "service": "order",
            "status": "1",
            "code": "JNX7CWPVV2W6",
            "amount": "58.990",
            "charge": "0.000",
            "old_balance": "6715.18",
            "new_balance": "6656.19",
            "message": "You place an order of â‚¦58.99 for TikTok - Comment ~ Custom ~ ğğ ğ—¥ğ—˜ğ—™ğ—œğ—Ÿğ—Ÿ ~ 3k/days ~ INSTANT",
            "response": "",
            "created_at": "2023-12-24T14:19:35.000000Z",
            "updated_at": "2023-12-24T14:19:35.000000Z",
            "deleted_at": null
        }
    ],
    "total": 338,
    "current_page": 1,
    "previous_page": null,
    "next_page": "https://www.instaking.ng/user-api/user/transactions?page=2",
    "last_page": 34
}